module bitbucket.org/platformdevelopment/datastore_interaction

require (
	github.com/armon/consul-api v0.0.0-20180202201655-eb2c6b5be1b6
	github.com/beorn7/perks v0.0.0-20180321164747-3a771d992973
	github.com/coreos/etcd v3.3.9+incompatible
	github.com/coreos/go-semver v0.2.0
	github.com/fsnotify/fsnotify v1.4.7
	github.com/golang/protobuf v1.2.0
	github.com/gorilla/context v1.1.1
	github.com/gorilla/handlers v1.3.0
	github.com/gorilla/mux v1.6.2
	github.com/hashicorp/hcl v1.0.0
	github.com/magiconair/properties v1.8.0
	github.com/matttproud/golang_protobuf_extensions v1.0.1
	github.com/mitchellh/mapstructure v1.0.0
	github.com/pelletier/go-toml v1.2.0
	github.com/prometheus/client_golang v0.8.0
	github.com/prometheus/client_model v0.0.0-20180712105110-5c3871d89910
	github.com/prometheus/common v0.0.0-20180801064454-c7de2306084e
	github.com/prometheus/procfs v0.0.0-20180725123919-05ee40e3a273
	github.com/satori/go.uuid v1.2.0
	github.com/spf13/afero v1.1.2
	github.com/spf13/cast v1.2.0
	github.com/spf13/jwalterweatherman v1.0.0
	github.com/spf13/pflag v1.0.2
	github.com/spf13/viper v1.2.0
	github.com/ugorji/go v1.1.1
	github.com/xordataexchange/crypt v0.0.0-20170626215501-b2862e3d0a77
	go.opencensus.io v0.0.0-20180914003605-689e87b7b388
	golang.org/x/crypto v0.0.0-20180910181607-0e37d006457b
	golang.org/x/sys v0.0.0-20180909124046-d0be0721c37e
	golang.org/x/text v0.3.0
	gopkg.in/yaml.v2 v2.2.1
)
